physique/elec/tp4/F0002CH2.CSV

Record Length,2.500000e+03,,  -0.000275000000,  -4.24000,
Sample Interval,2.000000e-07,,  -0.000274800000,  -4.24000,
Trigger Point,1.375000000000e+03,,  -0.000274600000,  -4.16000,
,,,  -0.000274400000,  -4.24000,
,,,  -0.000274200000,  -4.32000,
,,,  -0.000274000000,  -4.32000,
Source,CH2,,  -0.000273800000,  -4.16000,
Vertical Units,V,,  -0.000273600000,  -4.32000,
Vertical Scale,2.000000e+00,,  -0.000273400000,  -4.24000,
Vertical Offset,-8.000000e-02,,  -0.000273200000,  -4.32000,
Horizontal Units,s,,  -0.000273000000,  -4.32000,
Horizontal Scale,5.000000e-05,,  -0.000272800000,  -4.24000,
Pt Fmt,Y,,  -0.000272600000,  -4.24000,
Yzero,0.000000e+00,,  -0.000272400000,  -4.32000,
Probe Atten,1.000000e+00,,  -0.000272200000,  -4.24000,
Model Number,TBS1052B-EDU,,  -0.000272000000,  -4.32000,
Serial Number,C042302,,  -0.000271800000,  -4.32000,
Firmware Version,FV:v4.06,,  -0.000271600000,  -4.24000,
,,,-00.000271400000,  -4.32000,
,,,-00.000271200000,  -4.24000,
,,,-00.000271000000,  -4.24000,
,,,-00.000270800000,  -4.24000,
,,,-00.000270600000,  -4.16000,
,,,-00.000270400000,  -4.16000,
,,,-00.000270200000,  -4.24000,
,,,-00.000270000000,  -4.24000,
,,,-00.000269800000,  -4.24000,
,,,-00.000269600000,  -4.32000,
,,,-00.000269400000,  -4.32000,
,,,-00.000269200000,  -4.24000,
,,,-00.000269000000,  -4.24000,
,,,-00.000268800000,  -4.32000,
,,,-00.000268600000,  -4.16000,
,,,-00.000268400000,  -4.24000,
,,,-00.000268200000,  -4.32000,
,,,-00.000268000000,  -4.16000,
,,,-00.000267800000,  -4.32000,
,,,-00.000267600000,  -4.24000,
,,,-00.000267400000,  -4.24000,
,,,-00.000267200000,  -4.24000,
,,,-00.000267000000,  -4.24000,
,,,-00.000266800000,  -4.24000,
,,,-00.000266600000,  -4.24000,
,,,-00.000266400000,  -4.24000,
,,,-00.000266200000,  -4.16000,
,,,-00.000266000000,  -4.32000,
,,,-00.000265800000,  -4.16000,
,,,-00.000265600000,  -4.16000,
,,,-00.000265400000,  -4.24000,
,,,-00.000265200000,  -4.24000,
,,,-00.000265000000,  -4.32000,
,,,-00.000264800000,  -4.24000,
,,,-00.000264600000,  -4.32000,
,,,-00.000264400000,  -4.24000,
,,,-00.000264200000,  -4.16000,
,,,-00.000264000000,  -4.24000,
,,,-00.000263800000,  -4.16000,
,,,-00.000263600000,  -4.32000,
,,,-00.000263400000,  -4.24000,
,,,-00.000263200000,  -4.24000,
,,,-00.000263000000,  -4.32000,
,,,-00.000262800000,  -4.32000,
,,,-00.000262600000,  -4.16000,
,,,-00.000262400000,  -4.24000,
,,,-00.000262200000,  -4.24000,
,,,-00.000262000000,  -4.24000,
,,,-00.000261800000,  -4.32000,
,,,-00.000261600000,  -4.32000,
,,,-00.000261400000,  -4.24000,
,,,-00.000261200000,  -4.32000,
,,,-00.000261000000,  -4.24000,
,,,-00.000260800000,  -4.32000,
,,,-00.000260600000,  -4.24000,
,,,-00.000260400000,  -4.16000,
,,,-00.000260200000,  -4.24000,
,,,-00.000260000000,  -4.24000,
,,,-00.000259800000,  -4.24000,
,,,-00.000259600000,  -4.24000,
,,,-00.000259400000,  -4.16000,
,,,-00.000259200000,  -4.24000,
,,,-00.000259000000,  -4.24000,
,,,-00.000258800000,  -4.24000,
,,,-00.000258600000,  -4.32000,
,,,-00.000258400000,  -4.24000,
,,,-00.000258200000,  -4.24000,
,,,-00.000258000000,  -4.24000,
,,,-00.000257800000,  -4.24000,
,,,-00.000257600000,  -4.24000,
,,,-00.000257400000,  -4.32000,
,,,-00.000257200000,  -4.32000,
,,,-00.000257000000,  -4.24000,
,,,-00.000256800000,  -4.24000,
,,,-00.000256600000,  -4.24000,
,,,-00.000256400000,  -4.16000,
,,,-00.000256200000,  -4.32000,
,,,-00.000256000000,  -4.16000,
,,,-00.000255800000,  -4.24000,
,,,-00.000255600000,  -4.24000,
,,,-00.000255400000,  -4.16000,
,,,-00.000255200000,  -4.32000,
,,,-00.000255000000,  -4.24000,
,,,-00.000254800000,  -4.24000,
,,,-00.000254600000,  -4.24000,
,,,-00.000254400000,  -4.24000,
,,,-00.000254200000,  -4.24000,
,,,-00.000254000000,  -4.24000,
,,,-00.000253800000,  -4.16000,
,,,-00.000253600000,  -4.24000,
,,,-00.000253400000,  -4.32000,
,,,-00.000253200000,  -4.16000,
,,,-00.000253000000,  -4.24000,
,,,-00.000252800000,  -4.32000,
,,,-00.000252600000,  -4.24000,
,,,-00.000252400000,  -4.24000,
,,,-00.000252200000,  -4.24000,
,,,-00.000252000000,  -4.24000,
,,,-00.000251800000,  -4.24000,
,,,-00.000251600000,  -4.24000,
,,,-00.000251400000,  -4.16000,
,,,-00.000251200000,  -4.32000,
,,,-00.000251000000,  -4.32000,
,,,-00.000250800000,  -4.24000,
,,,-00.000250600000,  -4.24000,
,,,-00.000250400000,  -4.24000,
,,,-00.000250200000,  -4.24000,
,,,-00.000250000000,  -4.24000,
,,,-00.000249800000,  -4.24000,
,,,-00.000249600000,  -4.24000,
,,,-00.000249400000,  -4.24000,
,,,-00.000249200000,  -4.24000,
,,,-00.000249000000,  -4.24000,
,,,-00.000248800000,  -4.32000,
,,,-00.000248600000,  -4.24000,
,,,-00.000248400000,  -4.24000,
,,,-00.000248200000,  -4.24000,
,,,-00.000248000000,  -4.24000,
,,,-00.000247800000,  -4.32000,
,,,-00.000247600000,  -4.32000,
,,,-00.000247400000,  -4.24000,
,,,-00.000247200000,  -4.32000,
,,,-00.000247000000,  -4.24000,
,,,-00.000246800000,  -4.32000,
,,,-00.000246600000,  -4.24000,
,,,-00.000246400000,  -4.16000,
,,,-00.000246200000,  -4.24000,
,,,-00.000246000000,  -4.24000,
,,,-00.000245800000,  -4.24000,
,,,-00.000245600000,  -4.24000,
,,,-00.000245400000,  -4.16000,
,,,-00.000245200000,  -4.24000,
,,,-00.000245000000,  -4.24000,
,,,-00.000244800000,  -4.24000,
,,,-00.000244600000,  -4.16000,
,,,-00.000244400000,  -4.24000,
,,,-00.000244200000,  -4.24000,
,,,-00.000244000000,  -4.16000,
,,,-00.000243800000,  -4.32000,
,,,-00.000243600000,  -4.24000,
,,,-00.000243400000,  -4.24000,
,,,-00.000243200000,  -4.08000,
,,,-00.000243000000,  -4.24000,
,,,-00.000242800000,  -4.24000,
,,,-00.000242600000,  -4.24000,
,,,-00.000242400000,  -4.24000,
,,,-00.000242200000,  -4.24000,
,,,-00.000242000000,  -4.32000,
,,,-00.000241800000,  -4.24000,
,,,-00.000241600000,  -4.32000,
,,,-00.000241400000,  -4.24000,
,,,-00.000241200000,  -4.24000,
,,,-00.000241000000,  -4.32000,
,,,-00.000240800000,  -4.32000,
,,,-00.000240600000,  -4.24000,
,,,-00.000240400000,  -4.24000,
,,,-00.000240200000,  -4.24000,
,,,-00.000240000000,  -4.24000,
,,,-00.000239800000,  -4.32000,
,,,-00.000239600000,  -4.24000,
,,,-00.000239400000,  -4.24000,
,,,-00.000239200000,  -4.24000,
,,,-00.000239000000,  -4.24000,
,,,-00.000238800000,  -4.32000,
,,,-00.000238600000,  -4.24000,
,,,-00.000238400000,  -4.24000,
,,,-00.000238200000,  -4.32000,
,,,-00.000238000000,  -4.24000,
,,,-00.000237800000,  -4.24000,
,,,-00.000237600000,  -4.32000,
,,,-00.000237400000,  -4.24000,
,,,-00.000237200000,  -4.24000,
,,,-00.000237000000,  -4.32000,
,,,-00.000236800000,  -4.24000,
,,,-00.000236600000,  -4.16000,
,,,-00.000236400000,  -4.24000,
,,,-00.000236200000,  -4.16000,
,,,-00.000236000000,  -4.24000,
,,,-00.000235800000,  -4.32000,
,,,-00.000235600000,  -4.16000,
,,,-00.000235400000,  -4.24000,
,,,-00.000235200000,  -4.32000,
,,,-00.000235000000,  -4.16000,
,,,-00.000234800000,  -4.24000,
,,,-00.000234600000,  -4.32000,
,,,-00.000234400000,  -4.24000,
,,,-00.000234200000,  -4.32000,
,,,-00.000234000000,  -4.24000,
,,,-00.000233800000,  -4.24000,
,,,-00.000233600000,  -4.32000,
,,,-00.000233400000,  -4.24000,
,,,-00.000233200000,  -4.24000,
,,,-00.000233000000,  -4.24000,
,,,-00.000232800000,  -4.24000,
,,,-00.000232600000,  -4.24000,
,,,-00.000232400000,  -4.32000,
,,,-00.000232200000,  -4.16000,
,,,-00.000232000000,  -4.16000,
,,,-00.000231800000,  -4.24000,
,,,-00.000231600000,  -4.16000,
,,,-00.000231400000,  -4.16000,
,,,-00.000231200000,  -4.16000,
,,,-00.000231000000,  -4.24000,
,,,-00.000230800000,  -4.08000,
,,,-00.000230600000,  -4.24000,
,,,-00.000230400000,  -4.24000,
,,,-00.000230200000,  -4.16000,
,,,-00.000230000000,  -4.24000,
,,,-00.000229800000,  -4.32000,
,,,-00.000229600000,  -4.24000,
,,,-00.000229400000,  -4.16000,
,,,-00.000229200000,  -4.24000,
,,,-00.000229000000,  -4.24000,
,,,-00.000228800000,  -4.24000,
,,,-00.000228600000,  -4.24000,
,,,-00.000228400000,  -4.16000,
,,,-00.000228200000,  -4.16000,
,,,-00.000228000000,  -4.32000,
,,,-00.000227800000,  -4.24000,
,,,-00.000227600000,  -4.24000,
,,,-00.000227400000,  -4.24000,
,,,-00.000227200000,  -4.24000,
,,,-00.000227000000,  -4.32000,
,,,-00.000226800000,  -4.16000,
,,,-00.000226600000,  -4.08000,
,,,-00.000226400000,  -4.24000,
,,,-00.000226200000,  -4.16000,
,,,-00.000226000000,  -4.16000,
,,,-00.000225800000,  -4.16000,
,,,-00.000225600000,   4.08000,
,,,-00.000225400000,   3.92000,
,,,-00.000225200000,   4.00000,
,,,-00.000225000000,   3.92000,
,,,-00.000224800000,   4.16000,
,,,-00.000224600000,   4.00000,
,,,-00.000224400000,   4.00000,
,,,-00.000224200000,   4.08000,
,,,-00.000224000000,   4.00000,
,,,-00.000223800000,   4.16000,
,,,-00.000223600000,   4.08000,
,,,-00.000223400000,   4.16000,
,,,-00.000223200000,   4.08000,
,,,-00.000223000000,   4.00000,
,,,-00.000222800000,   4.00000,
,,,-00.000222600000,   4.00000,
,,,-00.000222400000,   4.16000,
,,,-00.000222200000,   4.08000,
,,,-00.000222000000,   4.08000,
,,,-00.000221800000,   4.08000,
,,,-00.000221600000,   4.08000,
,,,-00.000221400000,   4.16000,
,,,-00.000221200000,   4.08000,
,,,-00.000221000000,   4.16000,
,,,-00.000220800000,   4.16000,
,,,-00.000220600000,   4.16000,
,,,-00.000220400000,   4.08000,
,,,-00.000220200000,   4.08000,
,,,-00.000220000000,   4.16000,
,,,-00.000219800000,   4.24000,
,,,-00.000219600000,   4.16000,
,,,-00.000219400000,   4.24000,
,,,-00.000219200000,   4.16000,
,,,-00.000219000000,   4.16000,
,,,-00.000218800000,   4.16000,
,,,-00.000218600000,   4.08000,
,,,-00.000218400000,   4.16000,
,,,-00.000218200000,   4.08000,
,,,-00.000218000000,   4.16000,
,,,-00.000217800000,   4.16000,
,,,-00.000217600000,   4.16000,
,,,-00.000217400000,   4.24000,
,,,-00.000217200000,   4.24000,
,,,-00.000217000000,   4.16000,
,,,-00.000216800000,   4.16000,
,,,-00.000216600000,   4.16000,
,,,-00.000216400000,   4.16000,
,,,-00.000216200000,   4.16000,
,,,-00.000216000000,   4.16000,
,,,-00.000215800000,   4.16000,
,,,-00.000215600000,   4.16000,
,,,-00.000215400000,   4.08000,
,,,-00.000215200000,   4.24000,
,,,-00.000215000000,   4.24000,
,,,-00.000214800000,   4.16000,
,,,-00.000214600000,   4.16000,
,,,-00.000214400000,   4.16000,
,,,-00.000214200000,   4.16000,
,,,-00.000214000000,   4.16000,
,,,-00.000213800000,   4.24000,
,,,-00.000213600000,   4.16000,
,,,-00.000213400000,   4.16000,
,,,-00.000213200000,   4.24000,
,,,-00.000213000000,   4.16000,
,,,-00.000212800000,   4.16000,
,,,-00.000212600000,   4.08000,
,,,-00.000212400000,   4.16000,
,,,-00.000212200000,   4.24000,
,,,-00.000212000000,   4.08000,
,,,-00.000211800000,   4.24000,
,,,-00.000211600000,   4.24000,
,,,-00.000211400000,   4.24000,
,,,-00.000211200000,   4.16000,
,,,-00.000211000000,   4.24000,
,,,-00.000210800000,   4.16000,
,,,-00.000210600000,   4.24000,
,,,-00.000210400000,   4.24000,
,,,-00.000210200000,   4.16000,
,,,-00.000210000000,   4.16000,
,,,-00.000209800000,   4.16000,
,,,-00.000209600000,   4.24000,
,,,-00.000209400000,   4.08000,
,,,-00.000209200000,   4.16000,
,,,-00.000209000000,   4.24000,
,,,-00.000208800000,   4.24000,
,,,-00.000208600000,   4.24000,
,,,-00.000208400000,   4.16000,
,,,-00.000208200000,   4.16000,
,,,-00.000208000000,   4.24000,
,,,-00.000207800000,   4.32000,
,,,-00.000207600000,   4.16000,
,,,-00.000207400000,   4.24000,
,,,-00.000207200000,   4.16000,
,,,-00.000207000000,   4.24000,
,,,-00.000206800000,   4.24000,
,,,-00.000206600000,   4.24000,
,,,-00.000206400000,   4.24000,
,,,-00.000206200000,   4.24000,
,,,-00.000206000000,   4.24000,
,,,-00.000205800000,   4.32000,
,,,-00.000205600000,   4.24000,
,,,-00.000205400000,   4.24000,
,,,-00.000205200000,   4.24000,
,,,-00.000205000000,   4.32000,
,,,-00.000204800000,   4.16000,
,,,-00.000204600000,   4.24000,
,,,-00.000204400000,   4.24000,
,,,-00.000204200000,   4.24000,
,,,-00.000204000000,   4.32000,
,,,-00.000203800000,   4.32000,
,,,-00.000203600000,   4.24000,
,,,-00.000203400000,   4.24000,
,,,-00.000203200000,   4.24000,
,,,-00.000203000000,   4.16000,
,,,-00.000202800000,   4.16000,
,,,-00.000202600000,   4.24000,
,,,-00.000202400000,   4.16000,
,,,-00.000202200000,   4.16000,
,,,-00.000202000000,   4.16000,
,,,-00.000201800000,   4.24000,
,,,-00.000201600000,   4.24000,
,,,-00.000201400000,   4.16000,
,,,-00.000201200000,   4.24000,
,,,-00.000201000000,   4.24000,
,,,-00.000200800000,   4.24000,
,,,-00.000200600000,   4.16000,
,,,-00.000200400000,   4.24000,
,,,-00.000200200000,   4.24000,
,,,-00.000200000000,   4.24000,
,,,-00.000199800000,   4.24000,
,,,-00.000199600000,   4.16000,
,,,-00.000199400000,   4.24000,
,,,-00.000199200000,   4.16000,
,,,-00.000199000000,   4.32000,
,,,-00.000198800000,   4.24000,
,,,-00.000198600000,   4.24000,
,,,-00.000198400000,   4.16000,
,,,-00.000198200000,   4.24000,
,,,-00.000198000000,   4.24000,
,,,-00.000197800000,   4.16000,
,,,-00.000197600000,   4.32000,
,,,-00.000197400000,   4.16000,
,,,-00.000197200000,   4.24000,
,,,-00.000197000000,   4.32000,
,,,-00.000196800000,   4.16000,
,,,-00.000196600000,   4.16000,
,,,-00.000196400000,   4.24000,
,,,-00.000196200000,   4.24000,
,,,-00.000196000000,   4.40000,
,,,-00.000195800000,   4.32000,
,,,-00.000195600000,   4.16000,
,,,-00.000195400000,   4.40000,
,,,-00.000195200000,   4.24000,
,,,-00.000195000000,   4.24000,
,,,-00.000194800000,   4.24000,
,,,-00.000194600000,   4.16000,
,,,-00.000194400000,   4.24000,
,,,-00.000194200000,   4.24000,
,,,-00.000194000000,   4.16000,
,,,-00.000193800000,   4.16000,
,,,-00.000193600000,   4.32000,
,,,-00.000193400000,   4.24000,
,,,-00.000193200000,   4.16000,
,,,-00.000193000000,   4.16000,
,,,-00.000192800000,   4.16000,
,,,-00.000192600000,   4.16000,
,,,-00.000192400000,   4.16000,
,,,-00.000192200000,   4.16000,
,,,-00.000192000000,   4.32000,
,,,-00.000191800000,   4.16000,
,,,-00.000191600000,   4.24000,
,,,-00.000191400000,   4.24000,
,,,-00.000191200000,   4.24000,
,,,-00.000191000000,   4.16000,
,,,-00.000190800000,   4.16000,
,,,-00.000190600000,   4.32000,
,,,-00.000190400000,   4.16000,
,,,-00.000190200000,   4.08000,
,,,-00.000190000000,   4.16000,
,,,-00.000189800000,   4.24000,
,,,-00.000189600000,   4.08000,
,,,-00.000189400000,   4.24000,
,,,-00.000189200000,   4.08000,
,,,-00.000189000000,   4.24000,
,,,-00.000188800000,   4.24000,
,,,-00.000188600000,   4.16000,
,,,-00.000188400000,   4.16000,
,,,-00.000188200000,   4.24000,
,,,-00.000188000000,   4.32000,
,,,-00.000187800000,   4.16000,
,,,-00.000187600000,   4.24000,
,,,-00.000187400000,   4.16000,
,,,-00.000187200000,   4.24000,
,,,-00.000187000000,   4.24000,
,,,-00.000186800000,   4.24000,
,,,-00.000186600000,   4.16000,
,,,-00.000186400000,   4.24000,
,,,-00.000186200000,   4.24000,
,,,-00.000186000000,   4.32000,
,,,-00.000185800000,   4.24000,
,,,-00.000185600000,   4.32000,
,,,-00.000185400000,   4.16000,
,,,-00.000185200000,   4.32000,
,,,-00.000185000000,   4.24000,
,,,-00.000184800000,   4.32000,
,,,-00.000184600000,   4.32000,
,,,-00.000184400000,   4.16000,
,,,-00.000184200000,   4.24000,
,,,-00.000184000000,   4.24000,
,,,-00.000183800000,   4.32000,
,,,-00.000183600000,   4.16000,
,,,-00.000183400000,   4.24000,
,,,-00.000183200000,   4.16000,
,,,-00.000183000000,   4.08000,
,,,-00.000182800000,   4.32000,
,,,-00.000182600000,   4.24000,
,,,-00.000182400000,   4.16000,
,,,-00.000182200000,   4.24000,
,,,-00.000182000000,   4.16000,
,,,-00.000181800000,   4.16000,
,,,-00.000181600000,   4.16000,
,,,-00.000181400000,   4.24000,
,,,-00.000181200000,   4.24000,
,,,-00.000181000000,   4.32000,
,,,-00.000180800000,   4.16000,
,,,-00.000180600000,   4.16000,
,,,-00.000180400000,   4.24000,
,,,-00.000180200000,   4.24000,
,,,-00.000180000000,   4.24000,
,,,-00.000179800000,   4.24000,
,,,-00.000179600000,   4.24000,
,,,-00.000179400000,   4.24000,
,,,-00.000179200000,   4.32000,
,,,-00.000179000000,   4.24000,
,,,-00.000178800000,   4.16000,
,,,-00.000178600000,   4.16000,
,,,-00.000178400000,   4.24000,
,,,-00.000178200000,   4.24000,
,,,-00.000178000000,   4.16000,
,,,-00.000177800000,   4.24000,
,,,-00.000177600000,   4.24000,
,,,-00.000177400000,   4.32000,
,,,-00.000177200000,   4.24000,
,,,-00.000177000000,   4.16000,
,,,-00.000176800000,   4.24000,
,,,-00.000176600000,   4.16000,
,,,-00.000176400000,   4.24000,
,,,-00.000176200000,   4.32000,
,,,-00.000176000000,   4.24000,
,,,-00.000175800000,   4.24000,
,,,-00.000175600000,   4.32000,
,,,-00.000175400000,   4.24000,
,,,-00.000175200000,   4.16000,
,,,-00.000175000000,   4.24000,
,,,-00.000174800000,   4.24000,
,,,-00.000174600000,   4.24000,
,,,-00.000174400000,   4.16000,
,,,-00.000174200000,   4.16000,
,,,-00.000174000000,   4.24000,
,,,-00.000173800000,   4.32000,
,,,-00.000173600000,   4.16000,
,,,-00.000173400000,   4.16000,
,,,-00.000173200000,   4.24000,
,,,-00.000173000000,   4.24000,
,,,-00.000172800000,   4.24000,
,,,-00.000172600000,   4.16000,
,,,-00.000172400000,   4.16000,
,,,-00.000172200000,   4.24000,
,,,-00.000172000000,   4.24000,
,,,-00.000171800000,   4.32000,
,,,-00.000171600000,   4.24000,
,,,-00.000171400000,   4.32000,
,,,-00.000171200000,   4.24000,
,,,-00.000171000000,   4.24000,
,,,-00.000170800000,   4.32000,
,,,-00.000170600000,   4.16000,
,,,-00.000170400000,   4.24000,
,,,-00.000170200000,   4.24000,
,,,-00.000170000000,   4.16000,
,,,-00.000169800000,   4.16000,
,,,-00.000169600000,   4.16000,
,,,-00.000169400000,   4.24000,
,,,-00.000169200000,   4.16000,
,,,-00.000169000000,   4.32000,
,,,-00.000168800000,   4.16000,
,,,-00.000168600000,   4.16000,
,,,-00.000168400000,   4.24000,
,,,-00.000168200000,   4.24000,
,,,-00.000168000000,   4.16000,
,,,-00.000167800000,   4.32000,
,,,-00.000167600000,   4.16000,
,,,-00.000167400000,   4.32000,
,,,-00.000167200000,   4.24000,
,,,-00.000167000000,   4.32000,
,,,-00.000166800000,   4.24000,
,,,-00.000166600000,   4.24000,
,,,-00.000166400000,   4.24000,
,,,-00.000166200000,   4.32000,
,,,-00.000166000000,   4.24000,
,,,-00.000165800000,   4.24000,
,,,-00.000165600000,   4.24000,
,,,-00.000165400000,   4.32000,
,,,-00.000165200000,   4.16000,
,,,-00.000165000000,   4.24000,
,,,-00.000164800000,   4.24000,
,,,-00.000164600000,   4.16000,
,,,-00.000164400000,   4.32000,
,,,-00.000164200000,   4.24000,
,,,-00.000164000000,   4.24000,
,,,-00.000163800000,   4.16000,
,,,-00.000163600000,   4.24000,
,,,-00.000163400000,   4.16000,
,,,-00.000163200000,   4.24000,
,,,-00.000163000000,   4.24000,
,,,-00.000162800000,   4.16000,
,,,-00.000162600000,   4.24000,
,,,-00.000162400000,   4.24000,
,,,-00.000162200000,   4.24000,
,,,-00.000162000000,   4.32000,
,,,-00.000161800000,   4.16000,
,,,-00.000161600000,   4.16000,
,,,-00.000161400000,   4.24000,
,,,-00.000161200000,   4.32000,
,,,-00.000161000000,   4.24000,
,,,-00.000160800000,   4.24000,
,,,-00.000160600000,   4.24000,
,,,-00.000160400000,   4.32000,
,,,-00.000160200000,   4.24000,
,,,-00.000160000000,   4.32000,
,,,-00.000159800000,   4.24000,
,,,-00.000159600000,   4.16000,
,,,-00.000159400000,   4.32000,
,,,-00.000159200000,   4.16000,
,,,-00.000159000000,   4.24000,
,,,-00.000158800000,   4.24000,
,,,-00.000158600000,   4.16000,
,,,-00.000158400000,   4.24000,
,,,-00.000158200000,   4.16000,
,,,-00.000158000000,   4.24000,
,,,-00.000157800000,   4.24000,
,,,-00.000157600000,   4.24000,
,,,-00.000157400000,   4.24000,
,,,-00.000157200000,   4.24000,
,,,-00.000157000000,   4.24000,
,,,-00.000156800000,   4.16000,
,,,-00.000156600000,   4.24000,
,,,-00.000156400000,   4.32000,
,,,-00.000156200000,   4.24000,
,,,-00.000156000000,   4.16000,
,,,-00.000155800000,   4.24000,
,,,-00.000155600000,   4.24000,
,,,-00.000155400000,   4.24000,
,,,-00.000155200000,   4.24000,
,,,-00.000155000000,   4.16000,
,,,-00.000154800000,   4.16000,
,,,-00.000154600000,   4.16000,
,,,-00.000154400000,   4.16000,
,,,-00.000154200000,   4.16000,
,,,-00.000154000000,   4.32000,
,,,-00.000153800000,   4.32000,
,,,-00.000153600000,   4.16000,
,,,-00.000153400000,   4.24000,
,,,-00.000153200000,   4.24000,
,,,-00.000153000000,   4.16000,
,,,-00.000152800000,   4.24000,
,,,-00.000152600000,   4.24000,
,,,-00.000152400000,   4.32000,
